{
  "data":{
    "curPage":1,
    "datas":[
      {
        "name":"肖战",
        "email":"肖战@example.com"
      },
      {
        "name":"丁程鑫",
        "email":"丁程鑫@example.com"
      },
      {
        "name":"贺峻霖",
        "email":"贺峻霖@example.com"
      },
      {
        "name":"李天泽",
        "email":"李天泽@example.com"
      },
      {
        "name":"刘耀文",
        "email":"刘耀文@example.com"
      },
      {
        "name":"成毅",
        "email":"成毅@example.com"
      }
    ],
    "offset":0,
    "over":false,
    "pageCount":3,
    "size":20,
    "total":46
  },
  "code":0,
  "message":"Success get"
}